AnalyseF
…
print(most_cultivated_per_commune)

Simple feature collection with 32269 features and 2 fields
Geometry type: MULTIPOLYGON
Dimension:     XY
Bounding box:  xmin: -5.025808 ymin: 41.33319 xmax: 9.560053 ymax: 51.08899
Geodetic CRS:  WGS 84
# A tibble: 32,269 × 3
   Commune                    Culture_la_plus_cultivée                  geometry
 * <chr>                      <chr>                           <MULTIPOLYGON [°]>
 1 Achères-la-Forêt           Colza                    (((2.541152 48.32594, 2.…
 2 Amillis                    Blé tendre               (((3.106588 48.71325, 3.…
 3 Amponville                 Blé tendre               (((2.502611 48.28749, 2.…
 4 Andrezel                   Blé tendre               (((2.765703 48.60594, 2.…
 5 Annet-sur-Marne            Blé tendre               (((2.671102 48.92317, 2.…
 6 Arbonne-la-Forêt           Blé tendre               (((2.517012 48.42777, 2.…
 7 Argentières                Orge                     (((2.848627 48.65524, 2.…
 8 Armentières-en-Brie        Protéagineux             (((2.979173 48.98047, 2.…
 9 Arville                    Blé tendre               (((2.519992 48.19434, 2.…
10 Aubepierre-Ozouer-le-Repos Blé tendre               (((2.837951 48.61225, 2.…
# ℹ 32,259 more rows
…
print(most_cultivated_per_commune_2007)

Simple feature collection with 32277 features and 2 fields
Geometry type: MULTIPOLYGON
Dimension:     XY
Bounding box:  xmin: -5.025808 ymin: 41.33319 xmax: 9.560053 ymax: 51.08899
Geodetic CRS:  WGS 84
# A tibble: 32,277 × 3
   Commune                    Culture_la_plus_cultivée                  geometry
 * <chr>                      <chr>                           <MULTIPOLYGON [°]>
 1 Achères-la-Forêt           Blé tendre               (((2.541152 48.32594, 2.…
 2 Amillis                    Blé tendre               (((3.106588 48.71325, 3.…
 3 Amponville                 Blé tendre               (((2.502611 48.28749, 2.…
 4 Andrezel                   Blé tendre               (((2.765703 48.60594, 2.…
 5 Annet-sur-Marne            Blé tendre               (((2.671102 48.92317, 2.…
 6 Arbonne-la-Forêt           Blé tendre               (((2.517012 48.42777, 2.…
 7 Argentières                Blé tendre               (((2.848627 48.65524, 2.…
 8 Armentières-en-Brie        Orge                     (((2.979173 48.98047, 2.…
 9 Arville                    Blé tendre               (((2.519992 48.19434, 2.…
10 Aubepierre-Ozouer-le-Repos Blé tendre               (((2.837951 48.61225, 2.…
# ℹ 32,267 more rows
…
print(most_cultivated_per_commune_2008)

Simple feature collection with 32273 features and 2 fields
Geometry type: MULTIPOLYGON
Dimension:     XY
Bounding box:  xmin: -5.025808 ymin: 41.33319 xmax: 9.560053 ymax: 51.08899
Geodetic CRS:  WGS 84
# A tibble: 32,273 × 3
   Commune                    Culture_la_plus_cultivée                  geometry
 * <chr>                      <chr>                           <MULTIPOLYGON [°]>
 1 Achères-la-Forêt           Blé tendre               (((2.541152 48.32594, 2.…
 2 Amillis                    Blé tendre               (((3.106588 48.71325, 3.…
 3 Amponville                 Blé tendre               (((2.502611 48.28749, 2.…
 4 Andrezel                   Autres cultures industr… (((2.765703 48.60594, 2.…
 5 Annet-sur-Marne            Blé tendre               (((2.671102 48.92317, 2.…
 6 Arbonne-la-Forêt           Blé tendre               (((2.517012 48.42777, 2.…
 7 Argentières                Colza                    (((2.848627 48.65524, 2.…
 8 Armentières-en-Brie        Orge                     (((2.979173 48.98047, 2.…
 9 Arville                    Orge                     (((2.519992 48.19434, 2.…
10 Aubepierre-Ozouer-le-Repos Blé tendre               (((2.837951 48.61225, 2.…
# ℹ 32,263 more rows
…
print(most_cultivated_per_commune_2009)

Simple feature collection with 32277 features and 2 fields
Geometry type: MULTIPOLYGON
Dimension:     XY
Bounding box:  xmin: -5.025808 ymin: 41.33319 xmax: 9.560053 ymax: 51.08899
Geodetic CRS:  WGS 84
# A tibble: 32,277 × 3
   Commune                    Culture_la_plus_cultivée                  geometry
 * <chr>                      <chr>                           <MULTIPOLYGON [°]>
 1 Achères-la-Forêt           Orge                     (((2.541152 48.32594, 2.…
 2 Amillis                    Blé tendre               (((3.106588 48.71325, 3.…
 3 Amponville                 Blé tendre               (((2.502611 48.28749, 2.…
 4 Andrezel                   Blé tendre               (((2.765703 48.60594, 2.…
 5 Annet-sur-Marne            Blé tendre               (((2.671102 48.92317, 2.…
 6 Arbonne-la-Forêt           Blé tendre               (((2.517012 48.42777, 2.…
 7 Argentières                Blé tendre               (((2.848627 48.65524, 2.…
 8 Armentières-en-Brie        Orge                     (((2.979173 48.98047, 2.…
 9 Arville                    Blé tendre               (((2.519992 48.19434, 2.…
10 Aubepierre-Ozouer-le-Repos Blé tendre               (((2.837951 48.61225, 2.…
# ℹ 32,267 more rows
…
